/Users/gustavo-claure-flores/Documents/workspace-spring-tool-suite-4-4.2.2.RELEASE/practice-cucumber-selenium/src/main/java/utils/SeleniumDriver.java
/Users/gustavo-claure-flores/Documents/workspace-spring-tool-suite-4-4.2.2.RELEASE/practice-cucumber-selenium/src/main/java/pages/locators/HomePageElementsLocator.java
/Users/gustavo-claure-flores/Documents/workspace-spring-tool-suite-4-4.2.2.RELEASE/practice-cucumber-selenium/src/main/java/pages/actions/HomePageActions.java
